<define-tag pagetitle>DLA-0012-1 gnupg</define-tag>
<define-tag report_date>2014-6-30</define-tag>
<define-tag secrefs>CVE-2014-4617 Bug#752497</define-tag>
<define-tag packages>gnupg</define-tag>
<define-tag isvulnerable>yes</define-tag>
<define-tag fixed>yes</define-tag>
<define-tag fixed-section>no</define-tag>

#use wml::debian::security

