<define-tag pagetitle>DLA-884-1 collectd</define-tag>
<define-tag report_date>2017-4-4</define-tag>
<define-tag secrefs>CVE-2017-7401 Bug##859494</define-tag>
<define-tag packages>collectd</define-tag>
<define-tag isvulnerable>yes</define-tag>
<define-tag fixed>yes</define-tag>
<define-tag fixed-section>no</define-tag>

#use wml::debian::security

