<define-tag pagetitle>DLA-1011-1 sudo</define-tag>
<define-tag report_date>2017-7-3</define-tag>
<define-tag secrefs>CVE-2017-1000368 Bug#863897</define-tag>
<define-tag packages>sudo</define-tag>
<define-tag isvulnerable>yes</define-tag>
<define-tag fixed>yes</define-tag>
<define-tag fixed-section>no</define-tag>

#use wml::debian::security

