<define-tag pagetitle>DLA-1480-1 ruby2.1</define-tag>
<define-tag report_date>2018-8-27</define-tag>
<define-tag secrefs>CVE-2016-2337 CVE-2018-1000073 CVE-2018-1000074 Bug#895778 Bug#851161</define-tag>
<define-tag packages>ruby2.1</define-tag>
<define-tag isvulnerable>yes</define-tag>
<define-tag fixed>yes</define-tag>
<define-tag fixed-section>no</define-tag>

#use wml::debian::security

