<define-tag pagetitle>DSA-4373-1 coturn</define-tag>
<define-tag report_date>2019-1-28</define-tag>
<define-tag secrefs>CVE-2018-4056 CVE-2018-4058 CVE-2018-4059</define-tag>
<define-tag packages>coturn</define-tag>
<define-tag isvulnerable>yes</define-tag>
<define-tag fixed>yes</define-tag>
<define-tag fixed-section>no</define-tag>

#use wml::debian::security



</dl>
