<define-tag pagetitle>DLA-1715-1 linux-4.9</define-tag>
<define-tag report_date>2019-03-15</define-tag>
<define-tag secrefs>CVE-2017-18249 CVE-2018-1128 CVE-2018-1129 CVE-2018-3639 CVE-2018-5391 CVE-2018-5848 CVE-2018-6554 CVE-2018-12896 CVE-2018-13053 CVE-2018-13096 CVE-2018-13097 CVE-2018-13100 CVE-2018-13406 CVE-2018-14610 CVE-2018-14611 CVE-2018-14612 CVE-2018-14613 CVE-2018-14614 CVE-2018-14616 CVE-2018-15471 CVE-2018-16862 CVE-2018-17972 CVE-2018-18281 CVE-2018-18690 CVE-2018-18710 CVE-2018-19407 Bug#890034 Bug#896911 Bug#907581 Bug#915229 Bug#915231</define-tag>
<define-tag packages>linux-4.9</define-tag>
<define-tag isvulnerable>yes</define-tag>
<define-tag fixed>yes</define-tag>
<define-tag fixed-section>no</define-tag>

#use wml::debian::security

