<define-tag pagetitle>DLA-1837-1 rdesktop</define-tag>
<define-tag report_date>2019-06-25</define-tag>
<define-tag secrefs>Bug#930387</define-tag>
<define-tag packages>rdesktop</define-tag>
<define-tag isvulnerable>yes</define-tag>
<define-tag fixed>yes</define-tag>
<define-tag fixed-section>no</define-tag>

#use wml::debian::security

