<define-tag pagetitle>DLA-545-1 icu</define-tag>
<define-tag report_date>2016-7-7</define-tag>
<define-tag secrefs>CVE-2015-2632 CVE-2015-4844 CVE-2016-0494</define-tag>
<define-tag packages>icu</define-tag>
<define-tag isvulnerable>yes</define-tag>
<define-tag fixed>yes</define-tag>
<define-tag fixed-section>no</define-tag>

#use wml::debian::security

