<define-tag pagetitle>DLA-617-1 libarchive</define-tag>
<define-tag report_date>2016-9-10</define-tag>
<define-tag secrefs>CVE-2015-8915 CVE-2016-7166 Bug#784213</define-tag>
<define-tag packages>libarchive</define-tag>
<define-tag isvulnerable>yes</define-tag>
<define-tag fixed>yes</define-tag>
<define-tag fixed-section>no</define-tag>

#use wml::debian::security

