<define-tag pagetitle>DLA-602-1 gnupg</define-tag>
<define-tag report_date>2016-8-29</define-tag>
<define-tag secrefs>CVE-2016-6313 Bug#834893</define-tag>
<define-tag packages>gnupg</define-tag>
<define-tag isvulnerable>yes</define-tag>
<define-tag fixed>yes</define-tag>
<define-tag fixed-section>no</define-tag>

#use wml::debian::security

